(footprint "USB4105-GF-A" (version 20211014) (generator pcbnew)
  (layer "F.Cu")
  (tedit 61FA409C)
  (attr through_hole)
  (fp_text reference "REF**" (at 6.985 0 unlocked) (layer "F.SilkS")
    (effects (font (size 1 1) (thickness 0.15)))
    (tstamp 520b7bb2-fdb0-471e-b93d-4d2c927f56cc)
  )
  (fp_text value "USB4105-GF-A" (at 0 -3.81 unlocked) (layer "F.Fab")
    (effects (font (size 1 1) (thickness 0.15)))
    (tstamp 5f96ea10-a364-493f-858f-1d7f6127447d)
  )
  (fp_line (start -4.47 4.615) (end -4.47 3.175) (layer "F.SilkS") (width 0.12) (tstamp 1a1ab354-5f85-45f9-938c-9f6c4c8c3ea2))
  (fp_line (start 4.47 4.615) (end 4.47 3.175) (layer "F.SilkS") (width 0.12) (tstamp 1e1b062d-fad0-427c-a622-c5b8a80b5268))
  (fp_line (start -4.47 -0.635) (end -4.47 0.635) (layer "F.SilkS") (width 0.12) (tstamp 597a11f2-5d2c-4a65-ac95-38ad106e1367))
  (fp_line (start -4.47 4.615) (end 4.47 4.615) (layer "F.SilkS") (width 0.12) (tstamp 5cbb5968-dbb5-4b84-864a-ead1cacf75b9))
  (fp_line (start 4.47 -0.635) (end 4.47 0.635) (layer "F.SilkS") (width 0.12) (tstamp c7af8405-da2e-4a34-b9b8-518f342f8995))
  (fp_line (start 5.08 -2.735) (end 6.35 -2.735) (layer "F.SilkS") (width 0.12) (tstamp f357ddb5-3f44-43b0-b00d-d64f5c62ba4a))
  (fp_line (start -6.35 -2.735) (end -5.08 -2.735) (layer "F.SilkS") (width 0.12) (tstamp faa1812c-fdf3-47ae-9cf4-ae06a263bfbd))
  (pad "" np_thru_hole circle (at -2.89 -1.465) (size 0.65 0.65) (drill 0.65) (layers *.Mask) (tstamp 5ffdbee5-e1f4-49ee-8382-80c8219eb16c))
  (pad "" np_thru_hole circle (at 2.89 -1.465) (size 0.65 0.65) (drill 0.65) (layers *.Mask) (tstamp c268aa3d-ed87-493f-9c8f-05491010003b))
  (pad "A1/B12" smd roundrect (at -3.2 -2.54) (size 0.6 1.15) (layers "F.Cu" "F.Paste" "F.Mask") (roundrect_rratio 0.25) (tstamp 75e30faa-c8e4-4a5c-abf0-2933db9e4ded))
  (pad "A4/B9" smd roundrect (at -2.4 -2.54) (size 0.6 1.15) (layers "F.Cu" "F.Paste" "F.Mask") (roundrect_rratio 0.25) (tstamp 7caf2d15-d735-4075-82e5-125e09c726e5))
  (pad "A5" smd roundrect (at -1.25 -2.54) (size 0.3 1.15) (layers "F.Cu" "F.Paste" "F.Mask") (roundrect_rratio 0.25) (tstamp 404f38ca-4f7d-42cf-953d-61b3c569a4ce))
  (pad "A6" smd roundrect (at -0.25 -2.54) (size 0.3 1.15) (layers "F.Cu" "F.Paste" "F.Mask") (roundrect_rratio 0.25) (tstamp 00d5ebb0-6003-4546-85f3-3a1e2b0f1f30))
  (pad "A7" smd roundrect (at 0.25 -2.54) (size 0.3 1.15) (layers "F.Cu" "F.Paste" "F.Mask") (roundrect_rratio 0.25) (tstamp b0980d77-805a-49e4-8892-ee807d04d9d5))
  (pad "A8" smd roundrect (at 1.25 -2.54) (size 0.3 1.15) (layers "F.Cu" "F.Paste" "F.Mask") (roundrect_rratio 0.25) (tstamp c46efd89-38fb-4531-9e38-2349ec9296f2))
  (pad "A9/B4" smd roundrect (at 2.4 -2.54) (size 0.6 1.15) (layers "F.Cu" "F.Paste" "F.Mask") (roundrect_rratio 0.25) (tstamp b295bdec-099b-4170-8132-02f2b15c8d3d))
  (pad "A12/B1" smd roundrect (at 3.2 -2.54) (size 0.6 1.15) (layers "F.Cu" "F.Paste" "F.Mask") (roundrect_rratio 0.25) (tstamp b54b49b4-e8ec-474f-9851-bd66cb372f6c))
  (pad "B5" smd roundrect (at 1.75 -2.54) (size 0.3 1.15) (layers "F.Cu" "F.Paste" "F.Mask") (roundrect_rratio 0.25) (tstamp a52be53d-5eca-41c1-8218-92464cc5f0d2))
  (pad "B6" smd roundrect (at 0.75 -2.54) (size 0.3 1.15) (layers "F.Cu" "F.Paste" "F.Mask") (roundrect_rratio 0.25) (tstamp bfdcebc9-1a46-44be-9773-20e07b1e2bab))
  (pad "B7" smd roundrect (at -0.75 -2.54) (size 0.3 1.15) (layers "F.Cu" "F.Paste" "F.Mask") (roundrect_rratio 0.25) (tstamp 0e7b245a-0b9f-409c-b16c-2d472805650a))
  (pad "B8" smd roundrect (at -1.75 -2.54) (size 0.3 1.15) (layers "F.Cu" "F.Paste" "F.Mask") (roundrect_rratio 0.25) (tstamp 86b7ef8c-59b2-4a98-8950-5d563123a13a))
  (pad "S1" thru_hole oval (at -4.32 -1.965) (size 1 2.1) (drill oval 0.6 1.7) (layers *.Cu *.Mask) (tstamp 998e5fff-3967-427c-97da-520fcaa83486))
  (pad "S1" thru_hole oval (at 4.32 -1.965) (size 1 2.1) (drill oval 0.6 1.7) (layers *.Cu *.Mask) (tstamp afd2bf70-6f01-41de-91a9-cbd83b42fa0b))
  (pad "S1" thru_hole oval (at 4.32 2.215) (size 1 1.8) (drill oval 0.6 1.4) (layers *.Cu *.Mask) (tstamp b6a0c1f6-f67d-4138-9c8f-3866d751805d))
  (pad "S1" thru_hole oval (at -4.32 2.215) (size 1 1.8) (drill oval 0.6 1.4) (layers *.Cu *.Mask) (tstamp bc20d6c7-1c33-4ab4-b60a-1964cfce58f7))
)
